[
  {
    "Start tiêu đề ------": "Bien dong tieu de",
    "header": "../index.html",
    "headers": "TRUNG TÂM ĐIỀU HÀNH THÔNG MINH - THÀNH PHỐ HÀ NỘI",
    "imageLogo": "img/logo.png",
    "imageLogo1": "img/logo.png",
    "Stop tiêu đề ------": "ket thuc tieu de",

    "Start Home ----": "Bien dong cua trang index.html",
    "indexlinkbaocao": "bao_cao/baocao.html",
    "indexlinkchidaodieuhanh": "chi_dao_dieu_hanh/chidaodieuhanh.html",
    "indexlinktongketdieuhanh": "tong_ket_dieu_hanh/tongketdieuhanh.html",
    "indexlinkkiemtragiamsat": "kiem_tra_giam_sat/xulykhieunai.html",
    "indexlinkchuongtrinhhop": "chuong_trinh_hop/baocaochuongtrinhhop.html",
    "indexlinkykiennguoidan": "y_kien_nguoi_dan/ykiennguoidanindex.html",
    "indexlinkvanbandiden": "van_ban_di_den/vanbandiden.html",
    "indexlinkdieuhanhnoibo": "dieu_hanh_noi_bo/dieuhanhnoibo.html",
    "indexlinklichlamviec": "lich_lam_viec/lichlamviec.html",
    "indexlinknghiencuukhaosat": "nghien_cuu_khao_sat/tongsodetai.html",
    "indexlinkdaotaonoibo": "http://uybannhandantinhquangninh.aicgroup.online/dieu-hanh-thong-minh/",
    "indexlinkdiendan": "dien_dan/diendan.html",
    "indexlinkcctvcambien": "CCTV-QN/QUANG-NINH/QN-CCTV.html",
    "indexlinkketnoithongminh": "ket_noi_thong_minh/bando.html",
    "indexlinkphantichmxh": "phan_tich_mxh/phantichmxh.html",
    "indexlinkapp": "app/app.html",
    "indexlinksoc": "soc/center.html",
    "indexlinkweb": "/web/website.html",
    "End Home ------": "Ket thuc trang index.html",

    "Start Baocaotonghop": "Bien dong cua baocaotonghop.html",
    "baocaotonghoplinkchitieukinhtexahoi": "http://aicdemo.com/KinhTeXaHoi/bacninh/trungtamdieuhanh.html",
    "baocaotonghoplinkquanlydatdai": "http://qlik.aicvn.vn/sense/app/2494ba5b-6588-4993-80c3-06c4ea68eea8/sheet/b55f79e1-23e2-4ef3-a853-81a601d3dc53/state/analysis",
    "baocaotonghoplinkcsdldancu": "http://qlik.aicvn.vn/sense/app/d31ede7c-7231-4976-8b78-eb1649e0cf06/sheet/6399154d-21b2-406a-bec1-115ee275742f/state/analysis",
    "baocaotonghoplinkcongchucvienchuc": "http://qlik.aicvn.vn/internal_forms_authentication/?targetId=b87fa897-021a-486e-86e7-a64619aa8d04",
    "baocaotonghoplinkdoanhnghiep": "http://qlik.aicvn.vn/sense/app/7bb6b84f-2599-4afc-a7fa-290b84eb45c5/sheet/6399154d-21b2-406a-bec1-115ee275742f/state/analysis",
    "baocaotonghoplinkehoachquantrong": "",
    "baocaotonghoplinkehoachthuchingansach": "http://qlik.aicvn.vn/sense/app/402a6b19-4826-406a-b008-2a3ccc3faf2b/sheet/b55f79e1-23e2-4ef3-a853-81a601d3dc53/state/analysis",
    "baocaotonghoplinkdautu": "http://qlik.aicvn.vn/sense/app/a7180f15-4bac-4571-9afe-045aaf2c7df1/sheet/6399154d-21b2-406a-bec1-115ee275742f/state/analysis",
    "baocaotonghoplinkdulich": "http://qlik.aicvn.vn/internal_forms_authentication/?targetId=50c147ea-4c9e-463b-a973-07c9349d63a6",
    "End Baocaotonghop": "Ket thuc trang baocaotonghop.html",

    "Start guibaocao.html -----": "Bien dong cua trang guibaocao.html",
    "guibaocaoquaylaigui": "guibaocao.html",
    "baocaolinkguibaocao": "baocao.html",
    "baocaovanban": "http://dashboard-soc.bsoc.vn:8008/bkav-qn/video/video/Chi%20dao%20dieu%20hanh%20-%20Van%20ban.mp4",
    "baocaomangthongtindieuhanh": "http://dashboard-soc.bsoc.vn:8008/bkav-qn/video/video/Chi%20dao%20dieu%20hanh-Mang%20thong%20bao%20dieu%20hanh.mp4",
    "baocaogiaonhiemvu": "http://dashboard-soc.bsoc.vn:8008/bkav-qn/video/video/Chi%20dao%20dieu%20hanh%20-%20Giao%20nhiem%20vu.mp4",
    "baocaoemail": "email.html",
    "baocaosms": "sms.html",
    "baocaochat": "http://dashboard-soc.bsoc.vn:8008/bkav-qn/video/video/7.vala.mp4",
    "baocaolinktochucxahoi": "",
    "baocaodienthoai": "dienthoai.html",
    "End guibaocao.html-------": "Ket thuc trang guibaocao.html",

    "Start xembaocao --": "Bien dong cua xembaocao.html",
    "baocao": "baocao.html",
    "baocaolinkkhancap": "khancap1.html",
    "baocaolinktonghop": "baocaotonghop.html",
    "baocaolinksonganh": "",
    "baocaolinkdiaphuong": "",
    "End xembaocao-------": "Ket thuc trang xembaocao.html",

    "Start Chidaodieuhanh --": "Bien dong cua chidaodieuhanh.html",
    "chidaodieuhanhlinkvanban": "http://dashboard-soc.bsoc.vn:8008/bkav-qn/video/video/Chi%20dao%20dieu%20hanh%20-%20Van%20ban.mp4",
    "chidaodieuhanhlinkmangthongbaodieuhanh": "http://dashboard-soc.bsoc.vn:8008/bkav-qn/video/video/Chi%20dao%20dieu%20hanh-Mang%20thong%20bao%20dieu%20hanh.mp4",
    "chidaodieuhanhlinkgiaonhiemvu": "http://dashboard-soc.bsoc.vn:8008/bkav-qn/video/video/Chi%20dao%20dieu%20hanh%20-%20Giao%20nhiem%20vu.mp4",
    "chidaodieuhanhlinkemail": "email.html",
    "chidaodieuhanhlinksms": "sms.html",
    "chidaodieuhanhlinkchat": "http://dashboard-soc.bsoc.vn:8008/bkav-qn/video/video/7.vala.mp4",
    "chidaodieuhanhlinkdienthoai": "dienthoai.html",
    "End Chidaodieuhanh-------": "Ket thuc trang chidaodieuhanh.html",

    "Start huyen.html -----": "Bien dong cua trang huyen.html",
    "huyenquaylaigui": "huyen.html",
    "huyenlinkcoquan": "chidaodieuhanh.html",
    "huyenvanban": "http://dashboard-soc.bsoc.vn:8008/bkav-qn/video/video/Chi%20dao%20dieu%20hanh%20-%20Van%20ban.mp4",
    "huyenmangthongtindieuhanh": "http://dashboard-soc.bsoc.vn:8008/bkav-qn/video/video/Chi%20dao%20dieu%20hanh-Mang%20thong%20bao%20dieu%20hanh.mp4",
    "huyengiaonhiemvu": "http://dashboard-soc.bsoc.vn:8008/bkav-qn/video/video/Chi%20dao%20dieu%20hanh%20-%20Giao%20nhiem%20vu.mp4",
    "huyenemail": "email.html",
    "huyensms": "sms.html",
    "huyenchat": "http://dashboard-soc.bsoc.vn:8008/bkav-qn/video/video/7.vala.mp4",
    "huyendienthoai": "dienthoai.html",
    "End huyen.html-------": "Ket thuc trang huyen.html",

    "Start songanh --": "Bien dong cua songanh.html",
    "chidaodieuhanh": "chidaodieuhanh.html",
    "songanhlinkvanban": "http://dashboard-soc.bsoc.vn:8008/bkav-qn/video/video/Chi%20dao%20dieu%20hanh%20-%20Van%20ban.mp4",
    "songanhlinkmangthongbaodieuhanh": "http://dashboard-soc.bsoc.vn:8008/bkav-qn/video/video/Chi%20dao%20dieu%20hanh-Mang%20thong%20bao%20dieu%20hanh.mp4",
    "songanhlinkgiaonhiemvu": "http://dashboard-soc.bsoc.vn:8008/bkav-qn/video/video/Chi%20dao%20dieu%20hanh%20-%20Giao%20nhiem%20vu.mp4",
    "songanhlinkemail": "email.html",
    "songanhlinksms": "sms.html",
    "songanhlinkchat": "http://dashboard-soc.bsoc.vn:8008/bkav-qn/video/video/7.vala.mp4",
    "songanhlinkdienthoai": "dienthoai.html",
    "End songanh-------": "Ket thuc trang songanh.html",

    "Start Baocaochuongtrinhhop --": "Bien dong cua baocaochuongtrinhhop.html",
    "baocaochuongtrinhhopxemtheothoigian": "#",
    "baocaochuongtrinhhopxemtheocanhan": "#",
    "baocaochuongtrinhhopxuatbaocao": "../du_lieu/Bao%20cao%20tong%20hop%20tinh%20hinh%20quan%20ly%20lich%20hop%20v1.0.pdf",
    "baocaochuongtrinhhopa": "LỊCH HỌP THÁNG 8 CỦA CHỦ TỊCH",
    "baocaochuongtrinhhopb": "TỔNG HỢP CHƯƠNG TRÌNH HỌP CỦA LÃNH ĐẠO",
    "End Baocaochuongtrinhhop-------": "Ket thuc trang  baocaochuongtrinhhop.html",

    "Start chuongtrinhhop.html -----": "Bien dong cua trang chuongtrinhhop.html",
    "chuongtrinhhoplink": "../index.html",
    "chuongtrinhhopxemthoigian": "",
    "chuongtrinhhopxemdonvi": "baocaochuongtrinhhop.html",
    "chuongtrinhhopxuatbaocao": "../du_lieu/Bao%20cao%20tong%20hop%20tinh%20hinh%20quan%20ly%20lich%20hop%20v1.0.pdf",
    "chuongtrinhhopquaylai": "chuongtrinhhop.html",
    "tonghopchuongtrinhhopxemthoigian": "",
    "tonghopchuongtrinhhopxemcanhanh": "",
    "tonghopchuongtrinhhopxuatbaocao": "",
    "End chuongtrinhhop.html-------": "Ket thuc trang chuongtrinhhop.html",

    "Start Lichlamviec": " Bien dong cua lichlamviec.html",
    "lichlamviecxemtheothoigian": "#",
    "lichlamviecxemtheodonvi": "#",
    "lichlamviecxuatbaocao": "#",
    "lichlamviecdanhgia": "#",
    "lichlamvieclichhopcuachutich": "LỊCH HỌP CỦA CHỦ TỊCH",
    "lichlamviecthongkelichchutichdahop": "THỐNG KÊ LỊCH CỦA CHỦ TỊCH ĐÃ HỌP",
    "lichlamviecthongkelichchutichchuahop": "THỐNG KÊ LỊCH CỦA CHỦ TỊCH CHƯA HỌP",
    "End Lichlamviec-------": "Ket thuc trang lichlamviec.html",

    "Start vanbanchuaxuly --": "Bien dong cua vanbanchuaxuly.html",
    "vanbanchuaxulyxemtheothoigian": "tonghopxulyvanbanxemtheothoigian.html",
    "vanbanchuaxulyxemtheodonvi": "xemtheocanhan.html",
    "vanbanchuaxulyxemtheodanhgia": "#",
    "vanbanchuaxulyxuatbaocao": "../du_lieu/Bao%20cao%20tong%20hop%20xu%20ly%20cong%20van%201.0.pdf",
    "vanbanchuaxulystatistic": "img/vanbanchuaxuly_img/z.png",
    "vanbanchuaxulydiagram": "img/vanbanchuaxuly_img/1.png",
    "vanbanchuaxulytitle": "SỐ VĂN BẢN QUÁ HẠN THEO ĐƠN VỊ",
    "End vanbanchuaxuly-------": "Ket thuc trang vanbanchuaxuly.html",

    "Start vanbandiden.html --": "Bien dong cua vanbandiden.html",
    "vanbandidenquaylaiindex": "../index.html",
    "vanbandidenxemthoigian": "tonghopxulyvanbanxemtheothoigian.html",
    "vanbandidenxemdonvi": "xemtheocanhan.html",
    "vanbandidendanhgia": "vanbanchuaxuly.html",
    "vanbandidenxuatbaocao": "../du_lieu/Bao%20cao%20tong%20hop%20xu%20ly%20cong%20van%201.0.pdf    ",
    "vanbandidenquaylai": "vanbandiden.html",
    "vanbandidentheotuanquaylai": "tonghoptinhhinhxulyvanvantheotuan.html",
    "tonghopxulydanhgia": "",
    "tonghopxulybaocao": "",
    "End vanbandiden.html-------": "Ket thuc trang vanbandiden.html",

    "Start tonghoptinhhinhxulyvanvantheotuan --": "Bien dong cua tonghoptinhhinhxulyvanvantheotuan.html",
    "tonghoptinhhinhxulyvanvantheotuantrongtuan": "#",
    "tonghoptinhhinhxulyvanvantheotuanxemtheodonvi": "xemtheocanhan.html",
    "tonghoptinhhinhxulyvanvantheotuanxuatdanhgia": "#",
    "tonghoptinhhinhxulyvanvantheotuanxuatbaocao": "../du_lieu/Bao%20cao%20tong%20hop%20xu%20ly%20cong%20van%201.0.pdf",
    "tonghoptinhhinhxulyvanvantheotuandiagram": "img/tonghoptinhhinhxulyvanvantheotuan_img/6.png",
    "tonghoptinhhinhxulyvanvantheotuanstatistic": "img/tonghoptinhhinhxulyvanvantheotuan_img/5.png",
    "tonghoptinhhinhxulyvanvantheotuanvanbandatiepnhantheodonvi": "VĂN BẢN ĐÃ TIẾP NHẬN THEO CÁC ĐƠN VỊ",
    "tonghoptinhhinhxulyvanvantheotuanvanbandatiendoxuly": "TIẾN ĐỘ XỬ LÝ VĂN BẢN CÁC ĐƠN VỊ",
    "End tonghoptinhhinhxulyvanvantheotuan-------": "Ket thuc trang tonghoptinhhinhxulyvanvantheotuan.html"


  }
]